2.31481E-05	0.000974026
0.000300926	0.0146104
0.000532407	0.0321429
0.000972222	0.0603896
0.00143519	0.0915584
0.00203704	0.127597
0.00270833	0.168506
0.00328704	0.204545
0.0037963	0.238636
0.0043287	0.269805
0.00493056	0.308766
0.0056713	0.352597
0.00618056	0.387662
0.00685185	0.425649
0.00729167	0.455844
0.00789352	0.489935
0.00828704	0.509416
0.00858796	0.525
0.00868056	0.523052
0.00893519	0.521104
0.00914352	0.522078
0.00951389	0.526948
0.00974537	0.528896
0.0101157	0.525
0.010463	0.516234
0.0107407	0.503571
0.0110648	0.487013
0.0114583	0.46461
0.0118287	0.433442
0.0121296	0.412013
0.0124306	0.390584
0.0126852	0.372078
0.0128472	0.359416
