0.000213895	0.0144181
0.000535026	0.0324493
0.000962816	0.0612856
0.00144437	0.0901304
0.0019792	0.124977
0.00254063	0.163424
0.00363718	0.233121
0.00443976	0.281196
0.00526875	0.335268
0.00617828	0.390552
0.00706113	0.443434
0.00786381	0.49031
0.00821163	0.510743
0.0086401	0.531189
0.00888222	0.52883
0.00917753	0.533672
0.00949963	0.539717
0.0098222	0.539768
0.010145	0.537423
0.0103873	0.532667
0.0106297	0.526712
0.0108183	0.521948
0.011061	0.512397
0.0112502	0.499242
0.011466	0.489687
0.011682	0.477735
0.0118174	0.46577
0.0120337	0.450222
0.012223	0.435869
0.0124933	0.417932
0.0128174	0.398805
0.0130337	0.383257
0.0133304	0.371318
